\relax 
\providecommand\hyper@newdestlabel[2]{}
\providecommand\babel@aux[2]{}
\@nameuse{bbl@beforestart}
\providecommand\HyperFirstAtBeginDocument{\AtBeginDocument}
\HyperFirstAtBeginDocument{\ifx\hyper@anchor\@undefined
\global\let\oldcontentsline\contentsline
\gdef\contentsline#1#2#3#4{\oldcontentsline{#1}{#2}{#3}}
\global\let\oldnewlabel\newlabel
\gdef\newlabel#1#2{\newlabelxx{#1}#2}
\gdef\newlabelxx#1#2#3#4#5#6{\oldnewlabel{#1}{{#2}{#3}}}
\AtEndDocument{\ifx\hyper@anchor\@undefined
\let\contentsline\oldcontentsline
\let\newlabel\oldnewlabel
\fi}
\fi}
\global\let\hyper@last\relax 
\gdef\HyperFirstAtBeginDocument#1{#1}
\providecommand\HyField@AuxAddToFields[1]{}
\providecommand\HyField@AuxAddToCoFields[2]{}
\citation{Skipetrov2022Apr}
\citation{Skipetrov2023}
\babel@aux{british}{}
\@writefile{toc}{\contentsline {chapter}{\numberline {4}Toward a Photonic Topological Anderson Insulator}{1}{chapter.4}\protected@file@percent }
\@writefile{lof}{\addvspace {10\p@ }}
\@writefile{lot}{\addvspace {10\p@ }}
\pgfsyspdfmark {pgfid1}{4661699}{45107826}
\pgfsyspdfmark {pgfid2}{4661699}{36375264}
\@writefile{toc}{\contentsline {section}{\numberline {4.1}Our system: A two-dimensional honeycomb atomic lattice}{2}{section.4.1}\protected@file@percent }
\@writefile{lof}{\contentsline {figure}{\numberline {4.1}{\ignorespaces Each atom is treated as a simplified two-level system with the total angular momentum in the ground state $J_g = 0$ and in the excited state $J_e = 1$. The excited state is triply degenerate. The energy required for the excitation is $\hbar \omega _0$ and the decay time is $1 / \Gamma _0$.\relax }}{2}{figure.caption.1}\protected@file@percent }
\providecommand*\caption@xref[2]{\@setref\relax\@undefined{#1}}
\newlabel{fig:2level}{{4.1}{2}{Each atom is treated as a simplified two-level system with the total angular momentum in the ground state $J_g = 0$ and in the excited state $J_e = 1$. The excited state is triply degenerate. The energy required for the excitation is $\hbar \omega _0$ and the decay time is $1 / \Gamma _0$.\relax }{figure.caption.1}{}}
\newlabel{fig:2level@cref}{{[figure][1][4]4.1}{[1][2][]2}}
\@writefile{toc}{\contentsline {section}{\numberline {4.2}Density of states and band gaps}{3}{section.4.2}\protected@file@percent }
\@writefile{lof}{\contentsline {figure}{\numberline {4.2}{\ignorespaces (Left) Honeycomb lattice of two-level atoms. Atoms $A$ (red) and $B$ (blue) form a unit cell. We split the finite-size lattice into a circular bulk region (shaded in grey) and the remaining edge regions; the narrowest part of the edge has a width of $N_{\ensuremath  {\operatorname  {edge}}}$ atomic layers. For the purpose of illustration, the lattices shown are much smaller than theactual ones used in the calculations. Time-reversal symmetry can be broken by a magnetic field $\mathbf  {B}$ perpendicular to the $xy$ plane of the lattice. Inversion symmetry can be broken by distinguishing between atoms $A$ and $B$. Disorder is introduced by displacing atoms by random distances $\delta r_m \in [0, W]$ in random directions. (Right) Honeycomb lattice divided into rectangle to reveal the three types of edges: Zigzag, Armchair, and Bearded. The yellow wavy lines indicate that interactions occur through the magnetic field, indicating that it is no longer a tight-binding model.\relax }}{4}{figure.caption.2}\protected@file@percent }
\newlabel{fig:samples}{{4.2}{4}{(Left) Honeycomb lattice of two-level atoms. Atoms $A$ (red) and $B$ (blue) form a unit cell. We split the finite-size lattice into a circular bulk region (shaded in grey) and the remaining edge regions; the narrowest part of the edge has a width of $N_{\tmop {edge}}$ atomic layers. For the purpose of illustration, the lattices shown are much smaller than theactual ones used in the calculations. Time-reversal symmetry can be broken by a magnetic field $\mathbf {B}$ perpendicular to the $xy$ plane of the lattice. Inversion symmetry can be broken by distinguishing between atoms $A$ and $B$. Disorder is introduced by displacing atoms by random distances $\delta r_m \in [0, W]$ in random directions. (Right) Honeycomb lattice divided into rectangle to reveal the three types of edges: Zigzag, Armchair, and Bearded. The yellow wavy lines indicate that interactions occur through the magnetic field, indicating that it is no longer a tight-binding model.\relax }{figure.caption.2}{}}
\newlabel{fig:samples@cref}{{[figure][2][4]4.2}{[1][3][]4}}
\@writefile{toc}{\contentsline {section}{\numberline {4.3}Computing the Bott index: a topological marker}{4}{section.4.3}\protected@file@percent }
\@writefile{lof}{\contentsline {figure}{\numberline {4.3}{\ignorespaces \relax }}{5}{figure.caption.3}\protected@file@percent }
\newlabel{fig:dos_ipr}{{4.3}{5}{\relax }{figure.caption.3}{}}
\newlabel{fig:dos_ipr@cref}{{[figure][3][4]4.3}{[1][4][]5}}
\citation{Anderson1958Mar}
\citation{Reisner2021Mar}
\@writefile{lof}{\contentsline {figure}{\numberline {4.4}{\ignorespaces \relax }}{6}{figure.caption.4}\protected@file@percent }
\newlabel{fig:bott_chern}{{4.4}{6}{\relax }{figure.caption.4}{}}
\newlabel{fig:bott_chern@cref}{{[figure][4][4]4.4}{[1][5][]6}}
\@writefile{lof}{\contentsline {figure}{\numberline {4.5}{\ignorespaces Comparison between the calculation of the Bott index using the formula with the inverses on the left and the daggers on the right. Average performed over 50 realizations for 120 sites with $\Delta _{\mathbf  {B}} = 5$ and $\Delta _{AB} = 0$. For such a small numbers of sites, visible differences appear.\relax }}{6}{figure.caption.5}\protected@file@percent }
\newlabel{fig:bott_inv_dagger}{{4.5}{6}{Comparison between the calculation of the Bott index using the formula with the inverses on the left and the daggers on the right. Average performed over 50 realizations for 120 sites with $\Delta _{\mathbf {B}} = 5$ and $\Delta _{AB} = 0$. For such a small numbers of sites, visible differences appear.\relax }{figure.caption.5}{}}
\newlabel{fig:bott_inv_dagger@cref}{{[figure][5][4]4.5}{[1][6][]6}}
\@writefile{toc}{\contentsline {section}{\numberline {4.4}Introducing disorder }{6}{section.4.4}\protected@file@percent }
\citation{Perczel2017Jul}
\citation{Skipetrov2022Apr}
\@writefile{lof}{\contentsline {figure}{\numberline {4.6}{\ignorespaces $(a)$ A rectangular lattice used for the calculation of Bott index. The lattice used for the calculations in this work consists of $N = 2244$ atoms and is as close as possible to a square. $(b)$ A lattice having the shape of a hexagon with armchair edges that do not support edge states in the absence of magnetic filed (i.e., for $\Delta _{\mathbf  {B}} = 0$) The lattice used for the calculations in this work consists of $N = 4326$ atoms. The edge of the lattice is defined by $h_{\ensuremath  {\operatorname  {edge}}} = (N_{\ensuremath  {\operatorname  {edge}}} - 1) a \sqrt  {3} / 2$ and the remaining grey part is referred to as ``bulk''. We use $N_{\ensuremath  {\operatorname  {edge}}} = 4$ in this work.\relax }}{7}{figure.caption.6}\protected@file@percent }
\newlabel{fig:disorder_illus}{{4.6}{7}{$(a)$ A rectangular lattice used for the calculation of Bott index. The lattice used for the calculations in this work consists of $N = 2244$ atoms and is as close as possible to a square. $(b)$ A lattice having the shape of a hexagon with armchair edges that do not support edge states in the absence of magnetic filed (i.e., for $\Delta _{\mathbf {B}} = 0$) The lattice used for the calculations in this work consists of $N = 4326$ atoms. The edge of the lattice is defined by $h_{\tmop {edge}} = (N_{\tmop {edge}} - 1) a \sqrt {3} / 2$ and the remaining grey part is referred to as ``bulk''. We use $N_{\tmop {edge}} = 4$ in this work.\relax }{figure.caption.6}{}}
\newlabel{fig:disorder_illus@cref}{{[figure][6][4]4.6}{[1][6][]7}}
\@writefile{toc}{\contentsline {subsection}{\numberline {4.4.1}Disorder as a topological killer}{7}{subsection.4.4.1}\protected@file@percent }
\citation{Evers2008Oct}
\citation{Evers2008Oct}
\@writefile{lof}{\contentsline {figure}{\numberline {4.7}{\ignorespaces Closing of a topological band gap by disorder. (a) Average Bott index $\langle C_{\mathrm  {B}} \rangle $ as a function of disorder strength $W$ for \ $\Delta _{\mathbf  {B}} = 5$ and $\Delta _{AB}$ = 0. The white contour reproduced for reference in all plots $(a) - (c)$ shows the level $\langle C_{\mathrm  {B}} \rangle $ = \mbox  {} 0.5. $(b)$ Average edge DOS. Dashed lines show edge modes predicted by the perturbation theory. Frequencies of the lowest and highest frequency edge modes traced up to higher values of $W$ approximate band edges. $(c)$ Average bulk IPR. Deep violet color corresponds to either very low IPR or DOS = 0 (no modes). $(d)$ Average quasimode decay rate in units of the natural decay rate $\Gamma _0$ of an isolated atom. $N_{\ensuremath  {\operatorname  {sites}}} = 2244$ averaged over $50 - 200$ realizations.\relax }}{8}{figure.caption.7}\protected@file@percent }
\newlabel{fig:bott_5_0}{{4.7}{8}{Closing of a topological band gap by disorder. (a) Average Bott index $\langle C_{\Beta } \rangle $ as a function of disorder strength $W$ for \ $\Delta _{\mathbf {B}} = 5$ and $\Delta _{AB}$ = 0. The white contour reproduced for reference in all plots $(a) - (c)$ shows the level $\langle C_{\Beta } \rangle $ = \nonconverted {minus} 0.5. $(b)$ Average edge DOS. Dashed lines show edge modes predicted by the perturbation theory. Frequencies of the lowest and highest frequency edge modes traced up to higher values of $W$ approximate band edges. $(c)$ Average bulk IPR. Deep violet color corresponds to either very low IPR or DOS = 0 (no modes). $(d)$ Average quasimode decay rate in units of the natural decay rate $\Gamma _0$ of an isolated atom. $N_{\tmop {sites}} = 2244$ averaged over $50 - 200$ realizations.\relax }{figure.caption.7}{}}
\newlabel{fig:bott_5_0@cref}{{[figure][7][4]4.7}{[1][7][]8}}
\@writefile{lof}{\contentsline {figure}{\numberline {4.8}{\ignorespaces Impact of topological properties on spatial localization of modes. Mean bulk IPR in the vicinity of topologically trivial gaps for $(a) \Delta _{\mathbf  {B}} = 0, \Delta _{AB} = 5$ and $(b) \Delta _{\mathbf  {B}} = 5, \Delta _{AB} = 10$\relax }}{9}{figure.caption.8}\protected@file@percent }
\newlabel{fig:dab_ipr}{{4.8}{9}{Impact of topological properties on spatial localization of modes. Mean bulk IPR in the vicinity of topologically trivial gaps for $(a) \Delta _{\mathbf {B}} = 0, \Delta _{AB} = 5$ and $(b) \Delta _{\mathbf {B}} = 5, \Delta _{AB} = 10$\relax }{figure.caption.8}{}}
\newlabel{fig:dab_ipr@cref}{{[figure][8][4]4.8}{[1][8][]9}}
\@writefile{lof}{\contentsline {figure}{\numberline {4.9}{\ignorespaces Sections of \cref  {fig:bott_5_0} (c) (red), \cref  {fig:dab_ipr} (a) (green), and \cref  {fig:dab_ipr} (b) (blue) at a given disorder $W = 18$, averaged over 2000 realizations of disorder. Error bars show the standard error of the mean. Vertical dashed lines show band gap edges.\relax }}{9}{figure.caption.9}\protected@file@percent }
\newlabel{fig:ipr_18}{{4.9}{9}{Sections of \cref {fig:bott_5_0} (c) (red), \cref {fig:dab_ipr} (a) (green), and \cref {fig:dab_ipr} (b) (blue) at a given disorder $W = 18$, averaged over 2000 realizations of disorder. Error bars show the standard error of the mean. Vertical dashed lines show band gap edges.\relax }{figure.caption.9}{}}
\newlabel{fig:ipr_18@cref}{{[figure][9][4]4.9}{[1][8][]9}}
\@writefile{toc}{\contentsline {section}{\numberline {4.5}The emergence of a topological Anderson insulator}{9}{section.4.5}\protected@file@percent }
\@writefile{lof}{\contentsline {figure}{\numberline {4.10}{\ignorespaces Opening of a topological pseudogap by disorder. The four plots show the same quantities as \cref  {fig:bott_5_0} but for $\Delta _{\mathbf  {B}} = \Delta _{AB} = 5$ and disorder on atoms $B$ only.\relax }}{10}{figure.caption.10}\protected@file@percent }
\newlabel{fig:tai_1}{{4.10}{10}{Opening of a topological pseudogap by disorder. The four plots show the same quantities as \cref {fig:bott_5_0} but for $\Delta _{\mathbf {B}} = \Delta _{AB} = 5$ and disorder on atoms $B$ only.\relax }{figure.caption.10}{}}
\newlabel{fig:tai_1@cref}{{[figure][10][4]4.10}{[1][9][]10}}
\@writefile{lof}{\contentsline {figure}{\numberline {4.11}{\ignorespaces Average Bott index $\langle C_{\mathrm  {B}} \rangle $ calculated for four different values of $\Delta _{\mathbf  {B}}$ around $\Delta _{\mathbf  {B}} = \Delta _{AB} = 5$ for $a = \lambda _0 / 20$ in a rectangular sample shown in \cref  {fig:disorder_illus} The white contour shows the boundary $\langle C_{\mathrm  {B}} \rangle = - 0.5$ between the topologically nontrivial region where \ $\langle C_{\mathrm  {B}} \rangle = - 1$ (violet) and the trivial region where \ $\langle C_{\mathrm  {B}} \rangle = - 0$ (red). Ensemble averaging is performed over 60 independent realizations of disorder for each graph.\relax }}{10}{figure.caption.11}\protected@file@percent }
\newlabel{fig:tai_2}{{4.11}{10}{Average Bott index $\langle C_{\Beta } \rangle $ calculated for four different values of $\Delta _{\mathbf {B}}$ around $\Delta _{\mathbf {B}} = \Delta _{AB} = 5$ for $a = \lambda _0 / 20$ in a rectangular sample shown in \cref {fig:disorder_illus} The white contour shows the boundary $\langle C_{\Beta } \rangle = - 0.5$ between the topologically nontrivial region where \ $\langle C_{\Beta } \rangle = - 1$ (violet) and the trivial region where \ $\langle C_{\Beta } \rangle = - 0$ (red). Ensemble averaging is performed over 60 independent realizations of disorder for each graph.\relax }{figure.caption.11}{}}
\newlabel{fig:tai_2@cref}{{[figure][11][4]4.11}{[1][9][]10}}
\@writefile{lof}{\contentsline {figure}{\numberline {4.12}{\ignorespaces $(a)$ Phase diagram of the 2D disordered honeycomb atomic lattice in the 3D parameter space $(W, \omega , \Delta _{\mathbf  {B}})$ for $a = \lambda _0 / 20$ and $\Delta _{AB} = 5$ The blue surface shows the boundary between the topologically nontrivial (inside, $\langle C_{\mathrm  {B}} \rangle = - 1$) and trivial (outside,$\langle C_{\mathrm  {B}} \rangle = 0$) regions of the parameter space. The orange plane $\Delta _{\mathbf  {B}} = \Delta _{AB}$ separates the TI phase for $\Delta _{\mathbf  {B}} > \Delta _{AB}$ from TAI phase for $\Delta _{\mathbf  {B}} < \Delta _{AB}$. $(b)$ 3D density plot of average bulk IPR with the orange plane separating TI and TAI as in (a). For clarity, the values less than $0.006$ are not shown (transparent).\relax }}{11}{figure.caption.12}\protected@file@percent }
\newlabel{fig:phase_diagram_3d}{{4.12}{11}{$(a)$ Phase diagram of the 2D disordered honeycomb atomic lattice in the 3D parameter space $(W, \omega , \Delta _{\mathbf {B}})$ for $a = \lambda _0 / 20$ and $\Delta _{AB} = 5$ The blue surface shows the boundary between the topologically nontrivial (inside, $\langle C_{\Beta } \rangle = - 1$) and trivial (outside,$\langle C_{\Beta } \rangle = 0$) regions of the parameter space. The orange plane $\Delta _{\mathbf {B}} = \Delta _{AB}$ separates the TI phase for $\Delta _{\mathbf {B}} > \Delta _{AB}$ from TAI phase for $\Delta _{\mathbf {B}} < \Delta _{AB}$. $(b)$ 3D density plot of average bulk IPR with the orange plane separating TI and TAI as in (a). For clarity, the values less than $0.006$ are not shown (transparent).\relax }{figure.caption.12}{}}
\newlabel{fig:phase_diagram_3d@cref}{{[figure][12][4]4.12}{[1][9][]11}}
\@writefile{lof}{\contentsline {figure}{\numberline {4.13}{\ignorespaces Average full $(a)$, bulk $(b)$ and edge $(c)$ DOS in a hexagon-shaped sample shown in \cref  {fig:disorder_illus}\hskip 1em\relax for $a = \lambda _0 / 20$, $\Delta _{AB} = 5$ and $\Delta _{\mathbf  {B}} = 4$. Average IPR of bulk modes is shown in $(d)$. Ensemble averaging is performed over 200 independent realizations of disorder for each graph. The white contour in $(a - d)$ shows the boundary of the topologically nontrivial region from \cref  {fig:tai_2} (c)\relax }}{11}{figure.caption.13}\protected@file@percent }
\newlabel{fig:tai_ipr_dos}{{4.13}{11}{Average full $(a)$, bulk $(b)$ and edge $(c)$ DOS in a hexagon-shaped sample shown in \cref {fig:disorder_illus}\quad for $a = \lambda _0 / 20$, $\Delta _{AB} = 5$ and $\Delta _{\mathbf {B}} = 4$. Average IPR of bulk modes is shown in $(d)$. Ensemble averaging is performed over 200 independent realizations of disorder for each graph. The white contour in $(a - d)$ shows the boundary of the topologically nontrivial region from \cref {fig:tai_2} (c)\relax }{figure.caption.13}{}}
\newlabel{fig:tai_ipr_dos@cref}{{[figure][13][4]4.13}{[1][9][]11}}
\citation{Benalcazar2017Jul}
\citation{Schindler2018Jun}
\citation{Prodan2011May}
\citation{Yamakage2013May}
\@writefile{lof}{\contentsline {figure}{\numberline {4.14}{\ignorespaces Edge states located at the corners of the hexagon are depicted here for $\Delta _{\textbf  {B}} = \Delta _{AB} = 5$. On the left, we have the case without disorder for $(\omega -\omega _0)/\Gamma _0 = 10.1$, and on the right, we added disorder $W=7$\%, causing the state to shift to $(\omega -\omega _0)/\Gamma _0 = 10.5$. The simulation was conducted with 1000 sites for visibility purposes. \relax }}{12}{figure.caption.14}\protected@file@percent }
\newlabel{fig:corner_state}{{4.14}{12}{Edge states located at the corners of the hexagon are depicted here for $\Delta _{\textbf {B}} = \Delta _{AB} = 5$. On the left, we have the case without disorder for $(\omega -\omega _0)/\Gamma _0 = 10.1$, and on the right, we added disorder $W=7$\%, causing the state to shift to $(\omega -\omega _0)/\Gamma _0 = 10.5$. The simulation was conducted with 1000 sites for visibility purposes. \relax }{figure.caption.14}{}}
\newlabel{fig:corner_state@cref}{{[figure][14][4]4.14}{[1][12][]12}}
\bibstyle{apalike}
\bibdata{refs_chapter4}
\bibcite{Anderson1958Mar}{Anderson, 1958}
\bibcite{Benalcazar2017Jul}{Benalcazar et~al., 2017}
\bibcite{Evers2008Oct}{Evers and Mirlin, 2008}
\bibcite{Perczel2017Jul}{Perczel et~al., 2017}
\bibcite{Prodan2011May}{Prodan, 2011}
\bibcite{Reisner2021Mar}{Reisner et~al., 2021}
\bibcite{Schindler2018Jun}{Schindler et~al., 2018}
\bibcite{Skipetrov2022Apr}{Skipetrov and Wulles, 2022}
\bibcite{Skipetrov2023}{Skipetrov and Wulles, 2023}
\bibcite{Yamakage2013May}{Yamakage et~al., 2013}
\gdef \@abspage@last{15}
